{
	"info": {
		"_postman_id": "8cb67201-a5dd-438a-b4c9-d7bee71d3229",
		"name": "REST_API",
		"schema": "https://schema.getpostman.com/json/collection/v2.1.0/collection.json",
		"_exporter_id": "28079565"
	},
	"item": [
		{
			"name": "GetAPI",
			"item": [
				{
					"name": "GetTC1",
					"protocolProfileBehavior": {
						"disableBodyPruning": true
					},
					"request": {
						"method": "GET",
						"header": [],
						"body": {
							"mode": "raw",
							"raw": "",
							"options": {
								"raw": {
									"language": "json"
								}
							}
						},
						"url": {
							"raw": "{{GET}}",
							"host": [
								"{{GET}}"
							]
						}
					},
					"response": []
				},
				{
					"name": "GetTC3",
					"request": {
						"method": "GET",
						"header": [],
						"url": {
							"raw": "{{GET_API_EP}}",
							"host": [
								"{{GET_API_EP}}"
							]
						}
					},
					"response": []
				},
				{
					"name": "TC2",
					"event": [
						{
							"listen": "test",
							"script": {
								"exec": [
									"// validate status code",
									"pm.test(\"Status code is 200\", function(){",
									"    pm.response.to.have.status(200);",
									"});",
									"",
									"//Declare the expected result",
									"const id=[7,8,9,10,11,12]",
									"const email=[\"michael.lawson@reqres.in\",\"lindsay.ferguson@reqres.in\",\"tobias.funke@reqres.in\",\"byron.fields@reqres.in\",\"george.edwards@reqres.in\",\"rachel.howell@reqres.in\"]",
									"const first_name=[\"Michael\",\"Lindsay\",\"Tobias\",\"Byron\",\"George\",\"Rachel\"]",
									"const last_name=[\"Lawson\", \"Ferguson\",\"Funke\",\"Fields\",\"Edwards\",\"Howell\"]",
									"const avatar=[\"https://reqres.in/img/faces/7-image.jpg\",\"https://reqres.in/img/faces/8-image.jpg\",\"https://reqres.in/img/faces/9-image.jpg\",\"https://reqres.in/img/faces/10-image.jpg\",\"https://reqres.in/img/faces/11-image.jpg\", \"https://reqres.in/img/faces/12-image.jpg\"]",
									"",
									"//validate response body",
									"//validate response body",
									"var responseBody = pm.response.json();",
									"console.log(responseBody);",
									"//Fetch reesponse body data array length",
									"var dataArray = responseBody.data;",
									"var count = Object.keys(dataArray).length;",
									"console.log(count);",
									"",
									"//fetch and validate response body params",
									"for(i=0; i<count; i++)",
									"{",
									"    //fetche xpected results",
									"    var exp_id=id[i];",
									"    var exp_first_name=first_name[i];",
									"    var exp_email=email[i];",
									"    var exp_last_name=last_name[i];",
									"    var exp_avatar=avatar[i];",
									"",
									"    //fetch response body params",
									"    var res_id=responseBody.data[i].id;",
									"    var res_email=responseBody.data[i].email;",
									"    var res_first_name=responseBody.data[i].first_name;",
									"    var res_last_name=responseBody.data[i].last_name;",
									"    var res_avatar=responseBody.data[i].avatar;",
									"",
									"//validate response body",
									"pm.test(\"Validate response id at Index\" +i, function(){",
									"    pm.expect(res_id).to.eqls(exp_id);",
									"})",
									"",
									"pm.test(\"Validate email at index\" +i, function(){",
									"pm.expect(res_email).to.eqls(exp_email);",
									"})",
									"",
									"",
									"pm.test(\"Validate first_name at Index\" +i, function(){",
									"    pm.expect(res_first_name).to.eqls(exp_first_name);",
									"})",
									"",
									"pm.test(\"Validate last_name at idndex\" +i, function(){",
									"    pm.expect(res_last_name).to.eqls(exp_last_name);",
									"})",
									"",
									"pm.test(\"Validate avatar at Index\" +i, function(){",
									"    pm.expect(res_avatar).to.eqls(exp_avatar);",
									"})",
									"}",
									"pm.test(\"Validate page\",function(){",
									"    pm.expect(responseBody.page).to.eqls(2);",
									"})",
									"pm.test(\"validate per page\",function(){",
									"    pm.expect(responseBody.per_page).to.eqls(6);",
									"})",
									"pm.test(\"Validate the total \",function(){",
									"    pm.expect(responseBody.total).to.eqls(12);",
									"})",
									"pm.test(\"Validate the total page\",function(){",
									"    pm.expect(responseBody.total_pages).to.eqls(2);",
									"})",
									""
								],
								"type": "text/javascript"
							}
						}
					],
					"request": {
						"method": "GET",
						"header": [],
						"url": {
							"raw": "{{GET_API_EP}}",
							"host": [
								"{{GET_API_EP}}"
							]
						}
					},
					"response": []
				}
			]
		},
		{
			"name": "PatchAPI",
			"item": [
				{
					"name": "TC1",
					"event": [
						{
							"listen": "test",
							"script": {
								"exec": [
									"pm.test(\"status code is 200\",function(){",
									"    pm.response.to.have.status(200);",
									"})",
									"",
									"var responseBody=pm.response.json();",
									"console.log(responseBody);",
									"",
									"var res_name=responseBody.name;",
									"var res_job=responseBody.job;",
									"var res_date=responseBody.updatedAt;",
									"",
									"var requestBody=pm.request.body.raw;",
									"requestBody=JSON.parse(requestBody);",
									"var req_name=requestBody.name;",
									"var req_job=requestBody.job;",
									"var expectedDate = new Date().toISOString().slice(0,13);",
									"",
									"pm.test(\"validate response body parameters:Name\",function(){",
									"    pm.expect(res_name).to.eqls(req_name);",
									"})",
									"",
									"pm.test(\"validate response body parameters:job\",function(){",
									"    pm.expect(res_job).to.eqls(req_job);",
									"})",
									"",
									"pm.test(\"validate response body parameters:updatedAt\",function(){",
									"    pm.expect(res_date.slice(0,13)).to.eqls(expectedDate)",
									"})",
									"",
									""
								],
								"type": "text/javascript"
							}
						}
					],
					"request": {
						"method": "PATCH",
						"header": [],
						"body": {
							"mode": "raw",
							"raw": "{\n    \"name\": \"morpheus\",\n    \"job\": \"zion resident\"\n}",
							"options": {
								"raw": {
									"language": "json"
								}
							}
						},
						"url": {
							"raw": "{{PATCH_API_EP}}",
							"host": [
								"{{PATCH_API_EP}}"
							]
						}
					},
					"response": []
				}
			]
		},
		{
			"name": "PutAPI",
			"item": [
				{
					"name": "TC1",
					"event": [
						{
							"listen": "test",
							"script": {
								"exec": [
									"pm.test(\"status code is 200\",function(){",
									"    pm.response.to.have.status(200);",
									"})",
									"",
									"var responseBody=pm.response.json();",
									"console.log(responseBody);",
									"",
									"var res_name=responseBody.name;",
									"var res_job=responseBody.job;",
									"var res_date=responseBody.updatedAt;",
									"",
									"var requestBody=pm.request.body.raw;",
									"requestBody=JSON.parse(requestBody);",
									"var req_name=requestBody.name;",
									"var req_job=requestBody.job;",
									"var expectedDate=new Date().toISOString().slice(0,13);",
									"",
									"",
									"pm.test(\"validate response body parameters:Name\",function(){",
									"    pm.expect(res_name).to.eqls(req_name);",
									"})",
									"",
									"pm.test(\"validate response body parameters:job\",function(){",
									"    pm.expect(res_job).to.eqls(req_job);",
									"})",
									"",
									"pm.test(\"validate response body parameters:updatedAt\",function(){",
									"    pm.expect(res_date.slice(0,13)).to.eqls(expectedDate)",
									"})"
								],
								"type": "text/javascript"
							}
						}
					],
					"request": {
						"method": "PUT",
						"header": [],
						"body": {
							"mode": "raw",
							"raw": "{\n    \"name\": \"morpheus\",\n    \"job\": \"zion resident\"\n}",
							"options": {
								"raw": {
									"language": "json"
								}
							}
						},
						"url": {
							"raw": "{{PUT_API_EP}}",
							"host": [
								"{{PUT_API_EP}}"
							]
						}
					},
					"response": []
				}
			]
		},
		{
			"name": "DataDriven",
			"item": [
				{
					"name": "TC1 RandomData",
					"event": [
						{
							"listen": "test",
							"script": {
								"exec": [
									"pm.test(\"Status code is 201\", function () {",
									"    pm.response.to.have.status(201);",
									"});",
									"",
									"//Step 2 : Validate the response body",
									"// Step 2.1 : Fetch the response body",
									"var responseBody = pm.response.json();",
									"console.log(responseBody);",
									"var res_name = responseBody.name;",
									"var res_job = responseBody.job;",
									"var res_id = responseBody.id;",
									"var res_date = responseBody.createdAt;",
									"",
									"// Step 2.2 : Fetch expected result",
									"var requestBody = pm.request.body.raw;",
									"requestBody= JSON.parse(requestBody);",
									"var req_name = requestBody.name;",
									"var req_job = requestBody.job;",
									"var expectedDate = new Date().toISOString().slice(0,13);",
									"console.log(expectedDate)",
									"",
									"// Step 2.3 Validate the extracted response parameters",
									"pm.test(\"Validate response body parameters : Name\" , function (){",
									"    pm.expect(res_name).to.eqls(req_name);",
									"})",
									"",
									"pm.test(\"Validate response body parameters : Job\" , function (){",
									"    pm.expect(res_job).to.eqls(req_job);",
									"})",
									"",
									"pm.test(\"Validate response body parameters : Id\" , function (){",
									"    pm.expect(res_id).to.not.null;",
									"    pm.expect(res_id).to.have.length(3);",
									"})",
									"",
									"pm.test(\"Validate response body parameters : createdAt\" , function (){",
									"   pm.expect(res_date.slice(0,13)).to.eql(expectedDate)",
									"})",
									""
								],
								"type": "text/javascript",
								"packages": {}
							}
						},
						{
							"listen": "prerequest",
							"script": {
								"exec": [
									"var random_name=pm.variables.replaceIn('{{$randomFullName}}');",
									"pm.collectionVariables.set(\"Coll_Name\",random_name);",
									"",
									"var random_job=pm.variables.replaceIn('{{$randomJobType}}');",
									"pm.collectionVariables.set(\"Coll_Job\",random_job);"
								],
								"type": "text/javascript",
								"packages": {}
							}
						}
					],
					"request": {
						"method": "POST",
						"header": [],
						"body": {
							"mode": "raw",
							"raw": "{\n    \"name\": \"{{Coll_Name}}\",\n    \"job\": \"{{Coll_Job}}\"\n}",
							"options": {
								"raw": {
									"language": "json"
								}
							}
						},
						"url": {
							"raw": "https://reqres.in/api/users",
							"protocol": "https",
							"host": [
								"reqres",
								"in"
							],
							"path": [
								"api",
								"users"
							]
						}
					},
					"response": []
				},
				{
					"name": "Randomdatafix",
					"event": [
						{
							"listen": "test",
							"script": {
								"exec": [
									"pm.test(\"Status code is 201\", function () {",
									"    pm.response.to.have.status(201);",
									"});",
									"",
									"//Step 2 : Validate the response body",
									"// Step 2.1 : Fetch the response body",
									"var responseBody = pm.response.json();",
									"console.log(responseBody);",
									"var res_name = responseBody.name;",
									"var res_job = responseBody.job;",
									"var res_id = responseBody.id;",
									"var res_date = responseBody.createdAt;",
									"",
									"// Step 2.2 : Fetch expected result",
									"var requestBody = pm.request.body.raw;",
									"requestBody= JSON.parse(requestBody);",
									"var req_name = requestBody.name;",
									"var req_job = requestBody.job;",
									"var expectedDate = new Date().toISOString().slice(0,13);",
									"console.log(expectedDate)",
									"",
									"// Step 2.3 Validate the extracted response parameters",
									"pm.test(\"Validate response body parameters : Name\" , function (){",
									"    pm.expect(res_name).to.eqls(req_name);",
									"})",
									"",
									"pm.test(\"Validate response body parameters : Job\" , function (){",
									"    pm.expect(res_job).to.eqls(req_job);",
									"})",
									"",
									"pm.test(\"Validate response body parameters : Id\" , function (){",
									"    pm.expect(res_id).to.not.null;",
									"    pm.expect(res_id).to.have.length(3);",
									"})",
									"",
									"pm.test(\"Validate response body parameters : createdAt\" , function (){",
									"   pm.expect(res_date.slice(0,13)).to.eql(expectedDate)",
									"})",
									""
								],
								"type": "text/javascript",
								"packages": {}
							}
						},
						{
							"listen": "prerequest",
							"script": {
								"exec": [
									"var random_name=pm.variables.replaceIn('{{$randomFullName}}');",
									"pm.collectionVariables.set(\"Coll_Name\",random_name);",
									"",
									"var random_job=pm.variables.replaceIn('{{$randomJobType}}');",
									"pm.collectionVariables.set(\"Coll_Job\",random_job);"
								],
								"type": "text/javascript",
								"packages": {}
							}
						}
					],
					"request": {
						"method": "POST",
						"header": [],
						"body": {
							"mode": "raw",
							"raw": "{\n    \"name\": \"{{Coll_Name}}\",\n    \"job\": \"{{Coll_Job}}\"\n}",
							"options": {
								"raw": {
									"language": "json"
								}
							}
						},
						"url": {
							"raw": "https://reqres.in/api/users",
							"protocol": "https",
							"host": [
								"reqres",
								"in"
							],
							"path": [
								"api",
								"users"
							]
						}
					},
					"response": []
				},
				{
					"name": "data_json",
					"event": [
						{
							"listen": "test",
							"script": {
								"exec": [
									"pm.test(\"Status code is 201\", function () {",
									"    pm.response.to.have.status(201);",
									"});",
									"",
									"//Step 2 : Validate the response body",
									"// Step 2.1 : Fetch the response body",
									"var responseBody = pm.response.json();",
									"console.log(responseBody);",
									"var res_name = responseBody.name;",
									"var res_job = responseBody.job;",
									"var res_id = responseBody.id;",
									"var res_date = responseBody.createdAt;",
									"",
									"// Step 2.2 : Fetch expected result",
									"var requestBody = pm.request.body.raw;",
									"requestBody= JSON.parse(requestBody);",
									"var req_name = requestBody.name;",
									"var req_job = requestBody.job;",
									"var expectedDate = new Date().toISOString().slice(0,13);",
									"console.log(expectedDate)",
									"",
									"// Step 2.3 Validate the extracted response parameters",
									"pm.test(\"Validate response body parameters : Name\" , function (){",
									"    pm.expect(res_name).to.eqls(req_name);",
									"})",
									"",
									"pm.test(\"Validate response body parameters : Job\" , function (){",
									"    pm.expect(res_job).to.eqls(req_job);",
									"})",
									"",
									"pm.test(\"Validate response body parameters : Id\" , function (){",
									"    pm.expect(res_id).to.not.null;",
									"    pm.expect(res_id).to.have.length(3);",
									"})",
									"",
									"pm.test(\"Validate response body parameters : createdAt\" , function (){",
									"   pm.expect(res_date.slice(0,13)).to.eql(expectedDate)",
									"})",
									""
								],
								"type": "text/javascript",
								"packages": {}
							}
						},
						{
							"listen": "prerequest",
							"script": {
								"exec": [
									"var name = pm.iterationData.get(\"name\");",
									"pm.collectionVariables.set(\"Coll_Json_Name\",name);",
									"var job = pm.iterationData.get(\"job\");",
									"pm.collectionVariables.set(\"Coll_Json_Job\",job);"
								],
								"type": "text/javascript",
								"packages": {}
							}
						}
					],
					"request": {
						"method": "POST",
						"header": [],
						"body": {
							"mode": "raw",
							"raw": "{\n    \"name\": \"{{Coll_Json_Name}}\",\n    \"job\": \"{{Coll_Json_Job}}\"\n}",
							"options": {
								"raw": {
									"language": "json"
								}
							}
						},
						"url": {
							"raw": "https://reqres.in/api/users",
							"protocol": "https",
							"host": [
								"reqres",
								"in"
							],
							"path": [
								"api",
								"users"
							]
						}
					},
					"response": []
				},
				{
					"name": "data_JSON",
					"event": [
						{
							"listen": "test",
							"script": {
								"exec": [
									"pm.test(\"Status code is 201\", function () {",
									"    pm.response.to.have.status(201);",
									"});",
									"",
									"//Step 2 : Validate the response body",
									"// Step 2.1 : Fetch the response body",
									"var responseBody = pm.response.json();",
									"console.log(responseBody);",
									"var res_name = responseBody.name;",
									"var res_job = responseBody.job;",
									"var res_id = responseBody.id;",
									"var res_date = responseBody.createdAt;",
									"",
									"// Step 2.2 : Fetch expected result",
									"var requestBody = pm.request.body.raw;",
									"requestBody= JSON.parse(requestBody);",
									"var req_name = requestBody.name;",
									"var req_job = requestBody.job;",
									"var expectedDate = new Date().toISOString().slice(0,13);",
									"console.log(expectedDate)",
									"",
									"// Step 2.3 Validate the extracted response parameters",
									"pm.test(\"Validate response body parameters : Name\" , function (){",
									"    pm.expect(res_name).to.eqls(req_name);",
									"})",
									"",
									"pm.test(\"Validate response body parameters : Job\" , function (){",
									"    pm.expect(res_job).to.eqls(req_job);",
									"})",
									"",
									"pm.test(\"Validate response body parameters : Id\" , function (){",
									"    pm.expect(res_id).to.not.null;",
									"    pm.expect(res_id).to.have.length(3);",
									"})",
									"",
									"pm.test(\"Validate response body parameters : createdAt\" , function (){",
									"   pm.expect(res_date.slice(0,13)).to.eql(expectedDate)",
									"})",
									""
								],
								"type": "text/javascript",
								"packages": {}
							}
						},
						{
							"listen": "prerequest",
							"script": {
								"exec": [
									"var name = pm.iterationData.get(\"name\");",
									"pm.collectionVariables.set(\"Coll_J_Name\",name);",
									"var job = pm.iterationData.get(\"job\");",
									"pm.collectionVariables.set(\"Coll_J_Job\",job);"
								],
								"type": "text/javascript",
								"packages": {}
							}
						}
					],
					"request": {
						"method": "POST",
						"header": [],
						"body": {
							"mode": "raw",
							"raw": "{\n    \"name\": \"{{Coll_J_Name}}\",\n    \"job\" : \"{{Coll_J_Job}}\"\n}",
							"options": {
								"raw": {
									"language": "json"
								}
							}
						},
						"url": {
							"raw": "https://reqres.in/api/users",
							"protocol": "https",
							"host": [
								"reqres",
								"in"
							],
							"path": [
								"api",
								"users"
							]
						}
					},
					"response": []
				}
			]
		},
		{
			"name": "POSTAPI",
			"item": [
				{
					"name": "TC1",
					"event": [
						{
							"listen": "test",
							"script": {
								"exec": [
									"pm.test(\"Status code is 201\", function () {",
									"    pm.response.to.have.status(201);",
									"});",
									"",
									"//Step 2 : Validate the response body",
									"// Step 2.1 : Fetch the response body",
									"var responseBody = pm.response.json();",
									"console.log(responseBody);",
									"var res_name = responseBody.name;",
									"var res_job = responseBody.job;",
									"var res_id = responseBody.id;",
									"var res_date = responseBody.createdAt;",
									"",
									"// Step 2.2 : Fetch expected result",
									"var requestBody = pm.request.body.raw;",
									"requestBody= JSON.parse(requestBody);",
									"var req_name = requestBody.name;",
									"var req_job = requestBody.job;",
									"var expectedDate = new Date().toISOString().slice(0,13);",
									"console.log(expectedDate)",
									"",
									"// Step 2.3 Validate the extracted response parameters",
									"pm.test(\"Validate response body parameters : Name\" , function (){",
									"    pm.expect(res_name).to.eqls(req_name);",
									"})",
									"",
									"pm.test(\"Validate response body parameters : Job\" , function (){",
									"    pm.expect(res_job).to.eqls(req_job);",
									"})",
									"",
									"pm.test(\"Validate response body parameters : Id\" , function (){",
									"    pm.expect(res_id).to.not.null;",
									"    pm.expect(res_id).to.have.length(3);",
									"})",
									"",
									"pm.test(\"Validate response body parameters : createdAt\" , function (){",
									"   pm.expect(res_date.slice(0,13)).to.eql(expectedDate)",
									"})",
									""
								],
								"type": "text/javascript",
								"packages": {}
							}
						}
					],
					"request": {
						"method": "POST",
						"header": [],
						"body": {
							"mode": "raw",
							"raw": "{\n    \"name\": \"morpheus\",\n    \"job\": \"leader\"\n}",
							"options": {
								"raw": {
									"language": "json"
								}
							}
						},
						"url": {
							"raw": "https://reqres.in/api/users",
							"protocol": "https",
							"host": [
								"reqres",
								"in"
							],
							"path": [
								"api",
								"users"
							]
						}
					},
					"response": []
				}
			]
		},
		{
			"name": "DeleteAPI",
			"event": [
				{
					"listen": "test",
					"script": {
						"exec": [
							"pm.test(\"status code is 204\",function(){",
							"pm.response.to.have.status(204);",
							"",
							"})"
						],
						"type": "text/javascript"
					}
				}
			],
			"request": {
				"method": "DELETE",
				"header": [],
				"body": {
					"mode": "raw",
					"raw": "",
					"options": {
						"raw": {
							"language": "json"
						}
					}
				},
				"url": {
					"raw": "https://reqres.in/api/users/2",
					"protocol": "https",
					"host": [
						"reqres",
						"in"
					],
					"path": [
						"api",
						"users",
						"2"
					]
				}
			},
			"response": []
		}
	],
	"variable": [
		{
			"key": "Coll_Name",
			"value": ""
		},
		{
			"key": "Coll_Job",
			"value": ""
		},
		{
			"key": "Coll_J_Name",
			"value": ""
		},
		{
			"key": "Coll_J_Job",
			"value": ""
		},
		{
			"key": "Coll_Json_Name",
			"value": ""
		},
		{
			"key": "Coll_Json_Job",
			"value": ""
		}
	]
}